{
  "80caf7eb47badfcbaa8c17e432ec9303f457262b93ec14b58c3bf6b12e040800-1": {
    "address": "23.95.197.70:24126",
    "payee": "ASTvyaU9U5TEGQosrnA2EsiDcVPb7YRYdK",
    "status": "NEW_START_REQUIRED",
    "protocol": 70211,
    "daemonversion": "Unknown",
    "sentinelversion": "Unknown",
    "sentinelstate": "expired",
    "lastseen": 1535870646,
    "activeseconds": 1594794,
    "lastpaidtime": 0,
    "lastpaidblock": 0
  },
  "7c7419a9fa472ac0b094d8eabce9c0aac74831c5da9d174f5bdfbc6d6c3b2800-0": {
    "address": "107.174.83.6:24126",
    "payee": "AZ6hpfc5a1ZXRGseUTaMUdrTynhwWgeWT2",
    "status": "UPDATE_REQUIRED",
    "protocol": 70210,
    "daemonversion": "Unknown",
    "sentinelversion": "Unknown",
    "sentinelstate": "expired",
    "lastseen": 1534130951,
    "activeseconds": 2873825,
    "lastpaidtime": 0,
    "lastpaidblock": 0
  },
  "5134301f438583b328df45302fbe7ef6ac7af18f412fdc1fde6f1f6cde303500-0": {
    "address": "198.23.197.232:24126",
    "payee": "AFtxofk6tkesjVjj9hkx9wvVQazurrNAFg",
    "status": "ENABLED",
    "protocol": 70211,
    "daemonversion": "Unknown",
    "sentinelversion": "Unknown",
    "sentinelstate": "expired",
    "lastseen": 1535870315,
    "activeseconds": 1007089,
    "lastpaidtime": 0,
    "lastpaidblock": 0
  },
  "3a778010623c2c6aedc8d38504e2bd7edfc80fbeb65756419911b6c3d4295700-0": {
    "address": "107.174.83.219:24126",
    "payee": "ARhV7cywGGXZD6P5rnw4fvArUY4PoaQ87L",
    "status": "ENABLED",
    "protocol": 70211,
    "daemonversion": "Unknown",
    "sentinelversion": "1.1.0",
    "sentinelstate": "current",
    "lastseen": 1535870647,
    "activeseconds": 1639814,
    "lastpaidtime": 0,
    "lastpaidblock": 0
  },
  "11fae08f071d351f0d19fcb01589e43887fd0f6f687a200ea54eeee8a2baab00-0": {
    "address": "217.163.28.215:24126",
    "payee": "AcdV6x5k5VELAE5UsYAAZVd5sLcLf42H5y",
    "status": "ENABLED",
    "protocol": 70211,
    "daemonversion": "Unknown",
    "sentinelversion": "Unknown",
    "sentinelstate": "expired",
    "lastseen": 1535870761,
    "activeseconds": 1452956,
    "lastpaidtime": 0,
    "lastpaidblock": 0
  },
  "cb572500a4c3d235566aae58465948e26bc383f41448610597362d3e9513b900-1": {
    "address": "178.128.176.32:24126",
    "payee": "AG6G44JWMBP2ukhGuJybKwjPY8RGA86q7p",
    "status": "ENABLED",
    "protocol": 70211,
    "daemonversion": "Unknown",
    "sentinelversion": "Unknown",
    "sentinelstate": "expired",
    "lastseen": 1535870454,
    "activeseconds": 1494473,
    "lastpaidtime": 0,
    "lastpaidblock": 0
  },
  "196966c5b355db00a3bb492570283f67ce6d53f43e8eb5be3e1a627c200e8301-1": {
    "address": "45.77.225.203:24126",
    "payee": "AKpvEQ3JqfZgTVyVryGaxpGaJoBRBbsYnn",
    "status": "ENABLED",
    "protocol": 70211,
    "daemonversion": "Unknown",
    "sentinelversion": "1.1.0",
    "sentinelstate": "current",
    "lastseen": 1535870756,
    "activeseconds": 1542133,
    "lastpaidtime": 0,
    "lastpaidblock": 0
  },
  "5cb5a21a7bb72965bc223af2bd813921feee49ae5cea84c68b26b56d55800b02-0": {
    "address": "149.28.158.55:24126",
    "payee": "AecVJPc7VvRaHHn3zSbF4xFLoraboAe8RH",
    "status": "UPDATE_REQUIRED",
    "protocol": 70210,
    "daemonversion": "Unknown",
    "sentinelversion": "Unknown",
    "sentinelstate": "expired",
    "lastseen": 1534131213,
    "activeseconds": 3759099,
    "lastpaidtime": 0,
    "lastpaidblock": 0
  },
  "9c8deffac2456ebe021fe035741b40d2e9fa47d6a5e9c5a62730e6835328ab02-1": {
    "address": "45.63.97.72:24126",
    "payee": "AeenUAjdWB4RnhxFi36Nn9YQHrnifA1vD3",
    "status": "ENABLED",
    "protocol": 70211,
    "daemonversion": "Unknown",
    "sentinelversion": "Unknown",
    "sentinelstate": "expired",
    "lastseen": 1535870317,
    "activeseconds": 434830,
    "lastpaidtime": 0,
    "lastpaidblock": 0
  },
  "811090a79bbb4d3696e69631966977f3b66120951638eaf84501b3f743b00703-0": {
    "address": "159.65.105.148:24126",
    "payee": "AX9g2y1Yp9vtD9RbU6PaDUX1wfZG3AzhyS",
    "status": "UPDATE_REQUIRED",
    "protocol": 70210,
    "daemonversion": "Unknown",
    "sentinelversion": "Unknown",
    "sentinelstate": "expired",
    "lastseen": 1534131491,
    "activeseconds": 3310765,
    "lastpaidtime": 0,
    "lastpaidblock": 0
  },
  "b8e41478ef13d1f269f82558309b087dedad4ad6942a2ddda716cc4b49ab0b03-1": {
    "address": "108.61.156.169:24126",
    "payee": "AM7P8PvwA4ABvvkiicG3RFTprmm5sxA1bk",
    "status": "UPDATE_REQUIRED",
    "protocol": 70210,
    "daemonversion": "Unknown",
    "sentinelversion": "Unknown",
    "sentinelstate": "expired",
    "lastseen": 1534131184,
    "activeseconds": 1045075,
    "lastpaidtime": 0,
    "lastpaidblock": 0
  },
  "be05d04d26782413769365554d98ce51e5fcc99c4c8ccd621e950b2d71c81303-1": {
    "address": "149.28.118.254:24126",
    "payee": "AGoH1UyMqSAVgbSdMqe3WkjoD2ucUMwWuL",
    "status": "UPDATE_REQUIRED",
    "protocol": 70210,
    "daemonversion": "Unknown",
    "sentinelversion": "1.1.0",
    "sentinelstate": "current",
    "lastseen": 1534131504,
    "activeseconds": 1425351,
    "lastpaidtime": 0,
    "lastpaidblock": 0
  },
  "6b737d3189a08654fb2e78bed124849eb67bb0b28433a5db2c1936297b273503-0": {
    "address": "144.202.78.62:24126",
    "payee": "Aa64bw2gZDydu3x8ww3Y1giTfjFSqeeLf4",
    "status": "ENABLED",
    "protocol": 70211,
    "daemonversion": "Unknown",
    "sentinelversion": "1.1.0",
    "sentinelstate": "current",
    "lastseen": 1535870285,
    "activeseconds": 1639452,
    "lastpaidtime": 0,
    "lastpaidblock": 0
  },
  "f4aa82db3f56eb229b01648d246396710ec9c1b8e25ee48c531c19b97d213903-1": {
    "address": "207.246.90.11:24126",
    "payee": "ARCAiJDRARhgopJvsxHnVAkVqdsFEgCZ2S",
    "status": "ENABLED",
    "protocol": 70211,
    "daemonversion": "Unknown",
    "sentinelversion": "Unknown",
    "sentinelstate": "expired",
    "lastseen": 1535870279,
    "activeseconds": 1603253,
    "lastpaidtime": 0,
    "lastpaidblock": 0
  },
  "5f22c3da31e98991d2b3ee54b12644662ad7d66d0294ec7a4925842dea0b7d03-1": {
    "address": "207.246.101.200:24126",
    "payee": "ATSKdJPYmB91tr1CgxQWzSnaAyKyRYV3Fg",
    "status": "ENABLED",
    "protocol": 70211,
    "daemonversion": "Unknown",
    "sentinelversion": "Unknown",
    "sentinelstate": "expired",
    "lastseen": 1535870351,
    "activeseconds": 1625860,
    "lastpaidtime": 0,
    "lastpaidblock": 0
  },
  "633d1931c0cabac380775ce5e2beaa29727e865caf8d2f23eae3be0d2c6e1d04-1": {
    "address": "164.138.220.191:24126",
    "payee": "ALbVbNKX9JozfQ8ZXzScVS2dYYQKZHDYgZ",
    "status": "ENABLED",
    "protocol": 70211,
    "daemonversion": "Unknown",
    "sentinelversion": "Unknown",
    "sentinelstate": "expired",
    "lastseen": 1535870690,
    "activeseconds": 1449067,
    "lastpaidtime": 0,
    "lastpaidblock": 0
  },
  "710996af95ba60c82f0161faafbda6ea5be7cc1bc7b480c8cc63d32773de2304-1": {
    "address": "108.61.193.45:24126",
    "payee": "AU5kUe16Xi5yGToZSFNsYuYqnEX19Kw1FQ",
    "status": "UPDATE_REQUIRED",
    "protocol": 70210,
    "daemonversion": "Unknown",
    "sentinelversion": "Unknown",
    "sentinelstate": "expired",
    "lastseen": 1534131044,
    "activeseconds": 576109,
    "lastpaidtime": 0,
    "lastpaidblock": 0
  },
  "913299e18981c7a5f2975b5bd85bcafb2dc8dbf6dc8bc77a631bdbb361be2d04-1": {
    "address": "80.211.45.228:24126",
    "payee": "AXEniVQ95T2Tyj3A1TbmS5zXoZRrNgTvdS",
    "status": "ENABLED",
    "protocol": 70211,
    "daemonversion": "Unknown",
    "sentinelversion": "Unknown",
    "sentinelstate": "expired",
    "lastseen": 1535870518,
    "activeseconds": 1611560,
    "lastpaidtime": 0,
    "lastpaidblock": 0
  },
  "2f9cdfa82c9edfde22f13a051399c8e438f014b3ed2326055c40bdc0fd433f04-1": {
    "address": "199.247.15.33:24126",
    "payee": "AGRsUibh4Nh2ohBXWyVTMoaTPx7s2MzPiw",
    "status": "ENABLED",
    "protocol": 70211,
    "daemonversion": "Unknown",
    "sentinelversion": "Unknown",
    "sentinelstate": "expired",
    "lastseen": 1535870227,
    "activeseconds": 1536565,
    "lastpaidtime": 0,
    "lastpaidblock": 0
  },
  "1ca9b99ef9d181f785a0f8468e6ee467816465509dcf3f5d97587bf45732de04-1": {
    "address": "104.238.182.148:24126",
    "payee": "AFpusbBKEjRgsREjczorNTKFZEFih1Fe7q",
    "status": "UPDATE_REQUIRED",
    "protocol": 70210,
    "daemonversion": "Unknown",
    "sentinelversion": "Unknown",
    "sentinelstate": "expired",
    "lastseen": 1534131207,
    "activeseconds": 512722,
    "lastpaidtime": 0,
    "lastpaidblock": 0
  },
  "4977644c71894e51a24332c37f0ee03e790dc12ceb5fbe4ce8b9cf4755676505-1": {
    "address": "206.189.198.46:24126",
    "payee": "ATUTwTZAefDTCrR6tr2bXdTdw2vQNgRsAo",
    "status": "ENABLED",
    "protocol": 70211,
    "daemonversion": "Unknown",
    "sentinelversion": "Unknown",
    "sentinelstate": "expired",
    "lastseen": 1535870703,
    "activeseconds": 1654516,
    "lastpaidtime": 0,
    "lastpaidblock": 0
  },
  "4634c2f1c869ef1b4986b88a93ed96e0a752951309d7c38037c52e01a8458c05-1": {
    "address": "45.76.43.225:24126",
    "payee": "AcL5dQLna3ch1BQUEr4sQNvVkyjspkMihi",
    "status": "UPDATE_REQUIRED",
    "protocol": 70210,
    "daemonversion": "Unknown",
    "sentinelversion": "Unknown",
    "sentinelstate": "expired",
    "lastseen": 1534131153,
    "activeseconds": 3424295,
    "lastpaidtime": 0,
    "lastpaidblock": 0
 }
 }