23.95.197.70:server 1
107.174.83.6:server 2
198.23.197.232:server 3
107.174.83.219:server 4
23.95.0.144:server 5
23.226.138.123:server 6
107.174.83.7:server 7
198.23.197.233:server 8
107.174.83.170:server 9
72.11.133.96:server 10
72.11.133.97:server 11
72.11.133.98:server 12
72.11.133.99:server 13
172.245.94.244:server 14
172.245.94.245:server 15
172.245.94.25:server 16
207.246.126.189:server 17
192.210.201.104:server 18
192.210.201.105: server 19